[gd_scene load_steps=4 format=2]

[ext_resource path="res://gfx/sprites/navtile.png" type="Texture" id=1]
[ext_resource path="res://scenes/World/WaterArea.gd" type="Script" id=2]

[sub_resource type="RectangleShape2D" id=1]

custom_solver_bias = 0.0
extents = Vector2( 8, 8 )

[node name="Node2D" type="Node2D" index="0"]

[node name="Sprite" type="Sprite" parent="." index="0"]

texture = ExtResource( 1 )

[node name="WaterArea" type="Area2D" parent="Sprite" index="0"]

input_pickable = true
gravity_vec = Vector2( 0, 1 )
gravity = 98.0
linear_damp = 0.1
angular_damp = 1.0
audio_bus_override = false
audio_bus_name = "Master"
script = ExtResource( 2 )

[node name="CollisionShape2D" type="CollisionShape2D" parent="Sprite/WaterArea" index="0"]

shape = SubResource( 1 )

[connection signal="body_entered" from="Sprite/WaterArea" to="Sprite/WaterArea" method="_on_WaterArea_body_entered"]

[connection signal="body_exited" from="Sprite/WaterArea" to="Sprite/WaterArea" method="_on_WaterArea_body_exited"]


