[gd_scene load_steps=3 format=2]

[ext_resource path="res://gfx/placeholder_tiles.png" type="Texture" id=1]

[sub_resource type="RectangleShape2D" id=1]

custom_solver_bias = 0.0
extents = Vector2( 8, 8 )

[node name="Node2D" type="Node2D"]

[node name="Sprite" type="Sprite" parent="." index="0"]

texture = ExtResource( 1 )
vframes = 2
hframes = 20
frame = 3
_sections_unfolded = [ "Animation" ]

[node name="StaticBody2D" type="StaticBody2D" parent="Sprite" index="0"]

input_pickable = false
collision_layer = 1024
collision_mask = 0
constant_linear_velocity = Vector2( 0, 0 )
constant_angular_velocity = 0.0
friction = 1.0
bounce = 0.0
_sections_unfolded = [ "Collision" ]

[node name="CollisionShape2D" type="CollisionShape2D" parent="Sprite/StaticBody2D" index="0"]

shape = SubResource( 1 )


